Capítulo 3 CRP - Certificado de Regularidade Previdenciária | Análise de Dados Previdenciários - ADPrev
…
É possível ver que os CRP vencidos a mais tempo estão na casa dos 6000 dias.

A base de dados não contém informações sobre o porte do RPPS de forma a que se possa avaliar se o CRP vencido tem alguma relação com essa variável. Não seria difícil trazer essa informação para a base de dados, mas considerando que o objetivo aqui é trabalhar apenas os dados do CRP, essa verificação será deixada para capítulo posterior.

Para identificar os RPPS que estão com determinada quantidade de dias em atraso, é só aplicar um filtro na base de dados. Quais os RPPS que integram os 10% que estão com os maiores dias de atraso?

percentil_90 <- quantile(crp_rpps$n_dias[crp_rpps$n_dias > 30], probs = 0.9)

crp_rpps %>%
  filter(n_dias >= percentil_90) %>%
  select(ente, uf, dt_emissao, dt_validade, n_dias) %>% 
  arrange(desc(n_dias))

# A tibble: 45 x 5
   ente                  uf    dt_emissao dt_validade n_dias
   <chr>                 <chr> <date>     <date>       <dbl>
 1 Barreiras do Piauí    PI    2001-07-24 2002-01-20    6834
 2 Rochedo de Minas      MG    2002-06-17 2002-12-14    6506
 3 Miraí                 MG    2002-11-28 2003-05-27    6342
 4 Batalha               AL    2002-11-29 2003-05-28    6341
 5 Santo Antônio do Tauá PA    2002-12-02 2003-05-31    6338
 6 Belém                 AL    2002-12-06 2003-06-04    6334
 7 Antônio Gonçalves     BA    2003-01-20 2003-07-19    6289
 8 Pinheiro Machado      RS    2003-01-29 2003-07-28    6280
 9 Piau                  MG    2003-04-07 2003-10-04    6212
10 Palestina             AL    2003-06-01 2003-11-28    6157
# ... with 35 more rows
…
