Capítulo 4 DAIR - Demonstrativo das Aplicações e Investimento de Recursos | Análise de Dados Previdenciários - ADPrev
…
Quantas observações registram valor negativo para a variável perc_recursos_rpps?

dair %>% 
  filter(perc_recursos_rpps < 0) %>% 
  nrow()

[1] 177

Também pode ser de interesse identificar os RPPS a que pertencem essas observações. Começa-se pelos percentuais superiores a 100%

dair %>% 
  filter(perc_recursos_rpps > 100) %>% 
  distinct(ente, uf)

# A tibble: 118 x 2
   uf    ente                     
   <chr> <chr>                    
 1 AC    Governo do Estado do Acre
 2 AL    Atalaia                  
 3 AL    Batalha                  
 4 AL    Major Izidoro            
 5 AL    Novo Lino                
 6 AL    Palmeira dos Índios      
 7 AM    Itacoatiara              
 8 BA    Ipecaetá                 
 9 BA    Jacobina                 
10 CE    Acarapé                  
# ... with 108 more rows
…
Tem-se dados de Abril de 2018 a Julho de 2020.

Uma tabela que pode ser útil é a que mostre o valor alocado em cada tipo de ativo em cada mês. Com isso pode-se ter uma ideia de como o RPPS aloca seus recursos e como essa alocação evolui no tempo.

perfil <- dair_rpps %>% 
            group_by(competencia, enquadramento) %>% 
            summarise(vlr_alocado_ativo = sum(vlr_total_atual)) %>% 
            ungroup() %>%
            group_by(competencia) %>% 
            mutate(`%_alocado` = round(vlr_alocado_ativo / sum(vlr_alocado_ativo) * 100, 1)) 
           
perfil

# A tibble: 254 x 4
# Groups:   competencia [28]
   competencia         enquadramento  vlr_alocado_ativo `%_alocado`
   <dttm>              <chr>                      <dbl>       <dbl>
 1 2018-04-01 00:00:00 Art. 7º, I, b         268700264.        73.8
 2 2018-04-01 00:00:00 Art. 7º, IV, a         66578843.        18.3
 3 2018-04-01 00:00:00 Art. 8º, I, a                 0          0  
 4 2018-04-01 00:00:00 Art. 8º, I, b           5323415.         1.5
 5 2018-04-01 00:00:00 Art. 8º, II, a                0          0  
 6 2018-04-01 00:00:00 Art. 8º, III            5087313.         1.4
 7 2018-04-01 00:00:00 Art. 8º, IV, b           384995.         0.1
 8 2018-04-01 00:00:00 Disp                     556092.         0.2
 9 2018-04-01 00:00:00 Imoveis                17314873.         4.8
10 2018-05-01 00:00:00 Art. 7º, I, b         267804162.        72.5
# ... with 244 more rows
…
E quais os motivos mais frequentes para que o fundo seja vedado aos RPPS?

fundos_vedados %>% 
  count(MOTIVO) %>% 
  arrange(desc(n)) 

# A tibble: 24 x 2
   MOTIVO                                                  n
   <chr>                                               <int>
 1 FIDC Vedado                                            21
 2 FIP Vedado                                             20
 3 FII - Negociação 60%                                   16
 4 Ativo Vedado /                                         13
 5 Ativo Vedado / FIP Vedado /                             7
 6 Ativo Vedado / CRI/CRA /                                6
 7 Ativo Vedado / CRI/CRA / FIDC Vedado / FII Vedado /     5
 8 Ativo Vedado / FIDC Vedado /                            5
 9 FIDC Vedado /                                           5
10 Ativo Vedado / CRI/CRA / FIDC Vedado /                  4
# ... with 14 more rows
…
14

Uma observação: o quantitativo considera todos os meses. Assim, se o RPPS deixou de aplicar num fundo vedado, ele continua na contagem. Não seria difícil fazer essa análise considerando os fundos vedados presentes apenas no mês mais recente do RPPS na base de dados. A experiência diz que os números não mudariam muito, visto que não é fácil o RPPS se livrar de um fundo vedado.

Uma outra verificação interessante é se o RPPS realizou investimentos em fundos vedados no período. Essa situação pode dar-se de duas maneiras: o RPPS aumentar seus investimentos em um fundo vedado ou investir em um “novo” fundo vedado.

Quais RPPS do ERJ possuem investimentos em fundos vedados?

dair_fundos_vedados %>%
  group_by(cnpj, uf, ente) %>% 
  summarise(qtd_fundos = n_distinct(ident_ativo)) %>%
  filter(uf=="RJ") %>% 
  arrange(desc(qtd_fundos))

# A tibble: 34 x 4
# Groups:   cnpj, uf [34]
   cnpj           uf    ente               qtd_fundos
   <chr>          <chr> <chr>                   <int>
 1 39485438000142 RJ    Belford Roxo               13
 2 39485396000140 RJ    Japeri                     11
 3 39485412000102 RJ    Queimados                   7
 4 01615882000162 RJ    Iguaba Grande               4
 5 28636579000100 RJ    São Gonçalo                 4
 6 28741080000155 RJ    Itaboraí                    4
 7 32412819000152 RJ    Vassouras                   4
 8 04132090000125 RJ    Mesquita                    3
 9 29128741000134 RJ    Carmo                       3
10 29138336000105 RJ    São João de Meriti          3
# ... with 24 more rows
…
