Capítulo 5 DIPR - Demonstrativo de Informações Previdenciárias e Repasses | Análise de Dados Previdenciários - ADPrev
…
Os entes do ERJ que registraram no DIPR, no período em análise, o recebimento de receita de parcelamentos são os seguintes:

tab_parcelamento %>% 
  distinct(ente)

# A tibble: 58 x 1
   ente                     
   <chr>                    
 1 Angra dos Reis           
 2 Araruama                 
 3 Barra do Piraí           
 4 Bom Jardim               
 5 Cambuci                  
 6 Carapebus                
 7 Cardoso Moreira          
 8 Carmo                    
 9 Comendador Levy Gasparian
10 Conceição de Macabu      
# ... with 48 more rows

Tem-se 58 RPPS nessa situação, o que indica ser uma prática comum no ERJ não repassar recursos aos RPPS e formalizar acordos posteriormente.

Para verificar os dados de um RPPS específico basta aplicar um filtro na base de dados. Tomando-se o RPPS de Pinheiral como exemplo:

tab_parcelamento %>%
  filter(ente == "Pinheiral") %>% 
  arrange(plano_segreg, competencia)

# A tibble: 35 x 5
   ente      competencia plano_segreg parcelamentos ing_parc
   <chr>     <date>      <chr>                <dbl>    <dbl>
 1 Pinheiral 2019-01-01  Financeiro            367.     367.
 2 Pinheiral 2019-02-01  Financeiro            361.     361.
 3 Pinheiral 2019-03-01  Financeiro            364.     364.
 4 Pinheiral 2019-04-01  Financeiro            366.     366.
 5 Pinheiral 2019-05-01  Financeiro            797.     797.
 6 Pinheiral 2019-06-01  Financeiro            807.     807.
 7 Pinheiral 2019-07-01  Financeiro            820.     820.
 8 Pinheiral 2019-08-01  Financeiro            816.     816.
 9 Pinheiral 2019-09-01  Financeiro            821.     821.
10 Pinheiral 2019-10-01  Financeiro            824.     824.
# ... with 25 more rows
…
