Capítulo 6 DRAA - Demonstrativo de Resultados da Avaliação Atuarial | Análise de Dados Previdenciários - ADPrev
…
draa_ente

# A tibble: 42 x 4
   exercicio descr              codigo vlr_geracao_atual
       <dbl> <chr>               <dbl>             <dbl>
 1      2015 Total              500000       7421387367.
 2      2015 Renda Fixa         500101                0 
 3      2015 Renda Variável     500201                0 
 4      2015 Imóveis            500301                0 
 5      2015 Em Enquadramento   500401                0 
 6      2015 Não Suj. a Enquad. 500501                0 
 7      2015 Outros             509001       7421387367.
 8      2016 Total              500000       7388264506.
 9      2016 Renda Fixa         500101                0 
10      2016 Renda Variável     500201                0 
# ... with 32 more rows
…
Essa tabela ainda não é o que se deseja, mas já é possivel identificar os RPPS de uma determinada UF que encaminharam (ou não) o DRAA nos dois anos considerados.

Como está o ERJ?

tab %>%
  filter(uf == "RJ")

# A tibble: 69 x 5
   cnpj           ente               uf    `2019`  `2020` 
   <chr>          <chr>              <chr> <chr>   <chr>  
 1 29172467000109 Angra dos Reis     RJ    jul2019 jul2020
 2 36288900000123 Aperibé            RJ    <NA>    out2020
 3 28531762000133 Araruama           RJ    jun2020 jun2020
 4 39554605000160 Areal              RJ    mai2019 abr2020
 5 01616171000102 Armação dos Búzios RJ    jan2020 jul2020
 6 27792373000107 Arraial do Cabo    RJ    mai2019 jul2020
 7 28576080000147 Barra do Piraí     RJ    jun2020 <NA>   
 8 39485438000142 Belford Roxo       RJ    jul2019 <NA>   
 9 28561041000176 Bom Jardim         RJ    mai2019 jul2020
10 29111085000167 Cambuci            RJ    mai2019 ago2020
# ... with 59 more rows
…
