Capítulo 7 Parcelamento de Débitos | Análise de Dados Previdenciários - ADPrev
…
Para a obtenção de um sumário estatístico da variável qtd_parc pode-se fazer:

summary(parcel$qtd_parc) 

   Min. 1st Qu.  Median    Mean 3rd Qu.    Max. 
    1.0    60.0    60.0   113.4   200.0   540.0 

O resultado indica a existência de acordos de parcelamento passuindo apenas 1 parcela, até o máximo de 540 parcelas! Para identificar esses casos extremos pode-se utilizar os seguintes comandos:

# Valores mínimos
parcel %>% 
  slice_min(order_by=qtd_parc, n=1)

# A tibble: 31 x 29
   ente  uf    tipo  situacao num_acordo rubrica lei   dt_consol  dt_assin   dt_venc1a  compet_ini compet_fin vlr_consol qtd_parc vlr_parc_ini sd_estim_satual~ sd_estim_catual~
   <chr> <chr> <chr> <chr>    <chr>      <chr>   <chr> <date>     <date>     <date>     <date>     <date>          <dbl>    <dbl>        <dbl>            <dbl>            <dbl>
 1 Abae~ PA    P     Quitado  01571/2017 U200    Lei ~ 2017-10-20 2017-11-01 2017-12-30 2009-01-01 2009-12-01    146765.        1      146765.                0                0
 2 Açai~ MA    P     Não ace~ 00562/2019 CP60    <NA>  2019-07-15 2019-07-15 2019-07-19 2013-12-01 2017-12-01      6943.        1        6943.                0                0
 3 Açai~ MA    P     Aguarda~ 00070/2020 OUTR    <NA>  2020-01-01 2020-01-24 2020-01-24 2019-01-01 2019-07-01   3633908.        1     3633908.                0                0
 4 Água~ SP    P     Quitado  00853/2014 OUTR    LEI ~ 2014-12-18 2014-12-18 2015-01-15 2013-03-01 2014-03-01    216232.        1      216232.                0                0
 5 Apar~ SP    P     Aceito   00051/2020 CP60    LEI ~ 2020-01-17 2020-01-17 2020-02-28 2019-07-01 NA            423729.        1      423729.                0                0
 6 Arra~ RJ    P     Aceito   00916/2019 CP60    <NA>  2019-12-16 2019-12-20 2020-01-30 2014-03-01 2019-04-01     31413.        1       31413.                0                0
 7 Arra~ RJ    P     Aguarda~ 00921/2019 OUTR    <NA>  2020-05-25 2020-07-22 2020-08-31 2014-02-01 2019-02-01      5066.        1        5066.                0                0
 8 Arra~ RJ    P     Aguarda~ 00301/2020 CP60    <NA>  2020-05-26 2020-07-22 2020-08-31 2019-01-01 2019-04-01     28640.        1       28640.                0                0
 9 Arra~ RJ    P     Aguarda~ 00302/2020 OUTR    <NA>  2020-05-26 2020-07-22 2020-08-31 2019-01-01 2019-04-01     14493.        1       14493.                0                0
10 Arra~ RJ    P     Aguarda~ 00373/2020 OUTR    <NA>  2020-08-10 2020-08-11 2020-08-30 2014-01-01 2019-04-01    129700.        1      129700.                0                0
# ... with 21 more rows, and 12 more variables: comp_indice <chr>, comp_tp_juros <chr>, comp_txjuros <dbl>, comp_multa <dbl>, parcvinc_indice <chr>, parcvinc_tpjuros <chr>,
#   parcvinc_txjuros <dbl>, parcvinc_multa <dbl>, parcatraso_indice <chr>, parcatraso_tpjuros <chr>, parcatraso_txjuros <dbl>, parcatraso_multa <dbl>
…
